%YAML 1.1
%TAG !u! tag:unity3d.com,2011:
--- !u!1045 &1
EditorBuildSettings:
  m_ObjectHideFlags: 0
  serializedVersion: 2
  m_Scenes:
  - enabled: 1
    path: Assets/Scenes/Challenge1.unity
    guid: 99c9720ab356a0642a771bea13969a05
  - enabled: 1
    path: Assets/Scenes/Challenge2.unity
    guid: adff8996673b934448ab9228913a7f75
  - enabled: 1
    path: Assets/Scenes/Challenge3.unity
    guid: a41dc01bb52baa34095e5e8039ed71d4
  m_configObjects: {}
